Nonparametric Analysis of UK Road Accidents
…
full_collisions %>% mutate(previous_accident = ifelse(carriageway_hazards == "Previous accident", 1, 0))

## # A tibble: 252,617 x 38
##    accident_index accident_year accident_reference location_easting_osgr
##    <chr>                  <dbl> <chr>                              <dbl>
##  1 2017010001708           2017 010001708                         532920
##  2 2017010009342           2017 010009342                         526790
##  3 2017010009344           2017 010009344                         535200
##  4 2017010009348           2017 010009348                         534340
##  5 2017010009350           2017 010009350                         533680
##  6 2017010009351           2017 010009351                         514510
##  7 2017010009353           2017 010009353                         508640
##  8 2017010009354           2017 010009354                         527880
##  9 2017010009357           2017 010009357                         520940
## 10 2017010009358           2017 010009358                         531430
## # i 252,607 more rows
## # i 34 more variables: location_northing_osgr <dbl>, longitude <dbl>,
## #   latitude <dbl>, police_force <fct>, accident_severity <fct>,
## #   number_of_vehicles <dbl>, number_of_casualties <dbl>, date <date>,
## #   day_of_week <fct>, time <time>, local_authority_district <fct>,
## #   local_authority_ons_district <chr>, local_authority_highway <chr>,
## #   first_road_class <fct>, first_road_number <dbl>, road_type <fct>, ...
…
